5. Optical_pumping/data/quad_Zeeman-4MHx-1.Vpp.csv

Record Length,2500,Points,0.0,-0.220000000000000,,Record Length,2500,Points,0.0,0.878000000000000
Sample Interval,0.0100000000000,s,0.0100000000000,-0.220000000000000,,Sample Interval,0.0100000000000,s,0.0100000000000,0.878000000000000
Trigger Point,0.0,Samples,0.020000000000,-0.220000000000000,,Trigger Point,0.0,Samples,0.020000000000,0.878000000000000
,,,0.0300000000000,-0.220000000000000,,,,,0.0300000000000,0.878000000000000
,,,0.0400000000000,-0.220000000000000,,,,,0.0400000000000,0.878000000000000
,,,0.0500000000000,-0.220000000000000,,,,,0.0500000000000,0.878000000000000
Source,CH1,,0.06000000000000,-0.220000000000000,,Source,CH2,,0.06000000000000,0.878000000000000
Vertical Units,Volts,,0.07000000000000,-0.220000000000000,,Vertical Units,Volts,,0.07000000000000,0.878000000000000
Vertical Scale,0.511953000000000,,0.08000000000000,-0.220000000000000,,Vertical Scale,0.0511950000000,,0.08000000000000,0.878000000000000
Vertical Offset,0,,0.09000000000000,-0.220000000000000,,Vertical Offset,0,,0.09000000000000,0.878000000000000
Horizontal Units,s,,0.10000000000000,-0.220000000000000,,Horizontal Units,s,,0.10000000000000,0.878000000000000
Horizontal Scale,2.5000000,,0.1100000000000,-0.220000000000000,,Horizontal Scale,2.5000000,,0.1100000000000,0.878000000000000
Pt Fmt,Y,,0.1200000000000,-0.220000000000000,,Pt Fmt,Y,,0.1200000000000,0.878000000000000
Yzero,-4.57073100,,0.1300000000000,-0.220000000000000,,Yzero,-22.15046500,,0.1300000000000,0.878000000000000
Probe Atten,1.000000,,0.1400000000000,-0.220000000000000,,Probe Atten,1.000000,,0.1400000000000,0.878000000000000
,,,0.15000000000000,-0.220000000000000,,,,,0.15000000000000,0.878000000000000
Note,TBS 1102 - 10:46:15   15/05/2025,,0.16000000000000,-0.220000000000000,,Note,TBS 1102 - 10:46:15   15/05/2025,,0.16000000000000,0.878000000000000
,,,0.17000000000000,-0.220000000000000,,,,,0.17000000000000,0.878000000000000
,,,0.18000000000000,-0.220000000000000,,,,,0.18000000000000,0.878000000000000
,,,0.19000000000000,-0.220000000000000,,,,,0.19000000000000,0.878000000000000
,,,0.20000000000000,-0.220000000000000,,,,,0.20000000000000,0.878000000000000
,,,0.21000000000000,-0.220000000000000,,,,,0.21000000000000,0.878000000000000
,,,0.22000000000000,-0.220000000000000,,,,,0.22000000000000,0.878000000000000
,,,0.23000000000000,-0.220000000000000,,,,,0.23000000000000,0.878000000000000
,,,0.24000000000000,-0.220000000000000,,,,,0.24000000000000,0.878000000000000
,,,0.25000000000000,-0.220000000000000,,,,,0.25000000000000,0.878000000000000
,,,0.26000000000000,-0.220000000000000,,,,,0.26000000000000,0.878000000000000
,,,0.27000000000000,-0.220000000000000,,,,,0.27000000000000,0.878000000000000
,,,0.28000000000000,-0.220000000000000,,,,,0.28000000000000,0.878000000000000
,,,0.29000000000000,-0.220000000000000,,,,,0.29000000000000,0.878000000000000
,,,0.30000000000000,-0.220000000000000,,,,,0.30000000000000,0.878000000000000
,,,0.31000000000000,-0.220000000000000,,,,,0.31000000000000,0.878000000000000
,,,0.32000000000000,-0.220000000000000,,,,,0.32000000000000,0.878000000000000
,,,0.33000000000000,-0.220000000000000,,,,,0.33000000000000,0.878000000000000
,,,0.34000000000000,-0.220000000000000,,,,,0.34000000000000,0.878000000000000
,,,0.35000000000000,-0.220000000000000,,,,,0.35000000000000,0.878000000000000
,,,0.36000000000000,-0.220000000000000,,,,,0.36000000000000,0.878000000000000
,,,0.37000000000000,-0.220000000000000,,,,,0.37000000000000,0.878000000000000
,,,0.38000000000000,-0.220000000000000,,,,,0.38000000000000,0.878000000000000
,,,0.39000000000000,-0.220000000000000,,,,,0.39000000000000,0.878000000000000
,,,0.40000000000000,-0.220000000000000,,,,,0.40000000000000,0.878000000000000
,,,0.410000000000000,-0.220000000000000,,,,,0.410000000000000,0.878000000000000
,,,0.420000000000000,-0.220000000000000,,,,,0.420000000000000,0.878000000000000
,,,0.430000000000000,-0.220000000000000,,,,,0.430000000000000,0.878000000000000
,,,0.440000000000000,-0.220000000000000,,,,,0.440000000000000,0.878000000000000
,,,0.450000000000000,-0.220000000000000,,,,,0.450000000000000,0.878000000000000
,,,0.460000000000000,-0.220000000000000,,,,,0.460000000000000,0.878000000000000
,,,0.470000000000000,-0.220000000000000,,,,,0.470000000000000,0.878000000000000
,,,0.480000000000000,-0.220000000000000,,,,,0.480000000000000,0.878000000000000
,,,0.490000000000000,-0.220000000000000,,,,,0.490000000000000,0.878000000000000
,,,0.500000000000000,-0.220000000000000,,,,,0.500000000000000,0.878000000000000
,,,0.510000000000000,-0.220000000000000,,,,,0.510000000000000,0.878000000000000
,,,0.520000000000000,-0.220000000000000,,,,,0.520000000000000,0.878000000000000
,,,0.530000000000000,-0.220000000000000,,,,,0.530000000000000,0.878000000000000
,,,0.540000000000000,-0.220000000000000,,,,,0.540000000000000,0.878000000000000
,,,0.550000000000000,-0.220000000000000,,,,,0.550000000000000,0.878000000000000
,,,0.560000000000000,-0.220000000000000,,,,,0.560000000000000,0.878000000000000
,,,0.570000000000000,-0.220000000000000,,,,,0.570000000000000,0.878000000000000
,,,0.580000000000000,-0.220000000000000,,,,,0.580000000000000,0.878000000000000
,,,0.590000000000000,-0.220000000000000,,,,,0.590000000000000,0.878000000000000
,,,0.600000000000000,-0.220000000000000,,,,,0.600000000000000,0.878000000000000
,,,0.610000000000000,-0.220000000000000,,,,,0.610000000000000,0.878000000000000
,,,0.620000000000000,-0.220000000000000,,,,,0.620000000000000,0.878000000000000
,,,0.630000000000000,-0.220000000000000,,,,,0.630000000000000,0.878000000000000
,,,0.640000000000000,-0.220000000000000,,,,,0.640000000000000,0.878000000000000
,,,0.650000000000000,-0.220000000000000,,,,,0.650000000000000,0.878000000000000
,,,0.660000000000000,-0.220000000000000,,,,,0.660000000000000,0.878000000000000
,,,0.670000000000000,-0.220000000000000,,,,,0.670000000000000,0.878000000000000
,,,0.680000000000000,-0.220000000000000,,,,,0.680000000000000,0.878000000000000
,,,0.690000000000000,-0.220000000000000,,,,,0.690000000000000,0.878000000000000
,,,0.700000000000000,-0.220000000000000,,,,,0.700000000000000,0.878000000000000
,,,0.710000000000000,-0.220000000000000,,,,,0.710000000000000,0.878000000000000
,,,0.720000000000000,-0.220000000000000,,,,,0.720000000000000,0.878000000000000
,,,0.730000000000000,-0.220000000000000,,,,,0.730000000000000,0.878000000000000
,,,0.740000000000000,-0.220000000000000,,,,,0.740000000000000,0.878000000000000
,,,0.750000000000000,-0.220000000000000,,,,,0.750000000000000,0.878000000000000
,,,0.760000000000000,-0.220000000000000,,,,,0.760000000000000,0.878000000000000
,,,0.770000000000000,-0.220000000000000,,,,,0.770000000000000,0.878000000000000
,,,0.780000000000000,-0.220000000000000,,,,,0.780000000000000,0.878000000000000
,,,0.790000000000000,-0.220000000000000,,,,,0.790000000000000,0.878000000000000
,,,0.800000000000000,-0.220000000000000,,,,,0.800000000000000,0.878000000000000
,,,0.810000000000000,-0.220000000000000,,,,,0.810000000000000,0.878000000000000
,,,0.820000000000000,-0.220000000000000,,,,,0.820000000000000,0.878000000000000
,,,0.830000000000000,-0.220000000000000,,,,,0.830000000000000,0.878000000000000
,,,0.840000000000000,-0.220000000000000,,,,,0.840000000000000,0.878000000000000
,,,0.850000000000000,-0.220000000000000,,,,,0.850000000000000,0.878000000000000
,,,0.860000000000000,-0.220000000000000,,,,,0.860000000000000,0.878000000000000
,,,0.870000000000000,-0.220000000000000,,,,,0.870000000000000,0.878000000000000
,,,0.880000000000000,-0.220000000000000,,,,,0.880000000000000,0.878000000000000
,,,0.890000000000000,-0.220000000000000,,,,,0.890000000000000,0.878000000000000
,,,0.900000000000000,-0.220000000000000,,,,,0.900000000000000,0.878000000000000
,,,0.910000000000000,-0.220000000000000,,,,,0.910000000000000,0.878000000000000
,,,0.920000000000000,-0.220000000000000,,,,,0.920000000000000,0.878000000000000
,,,0.930000000000000,-0.220000000000000,,,,,0.930000000000000,0.878000000000000
,,,0.940000000000000,-0.220000000000000,,,,,0.940000000000000,0.878000000000000
,,,0.950000000000000,-0.220000000000000,,,,,0.950000000000000,0.878000000000000
,,,0.960000000000000,-0.220000000000000,,,,,0.960000000000000,0.878000000000000
,,,0.970000000000000,-0.220000000000000,,,,,0.970000000000000,0.878000000000000
,,,0.980000000000000,-0.220000000000000,,,,,0.980000000000000,0.878000000000000
,,,0.990000000000000,-0.220000000000000,,,,,0.990000000000000,0.878000000000000
,,,1.000000,-0.220000000000000,,,,,1.000000,0.878000000000000
,,,1.0100000,-0.220000000000000,,,,,1.0100000,0.878000000000000
,,,1.0200000,-0.220000000000000,,,,,1.0200000,0.878000000000000
,,,1.0300000,-0.220000000000000,,,,,1.0300000,0.878000000000000
,,,1.0400000,-0.220000000000000,,,,,1.0400000,0.878000000000000
,,,1.0500000,-0.220000000000000,,,,,1.0500000,0.878000000000000
,,,1.0600000,-0.220000000000000,,,,,1.0600000,0.878000000000000
,,,1.0700000,-0.220000000000000,,,,,1.0700000,0.878000000000000
,,,1.0800000,-0.220000000000000,,,,,1.0800000,0.878000000000000
,,,1.0900000,-0.220000000000000,,,,,1.0900000,0.878000000000000
,,,1.1000000,-0.220000000000000,,,,,1.1000000,0.878000000000000
,,,1.1100000,-0.220000000000000,,,,,1.1100000,0.878000000000000
,,,1.1200000,-0.220000000000000,,,,,1.1200000,0.878000000000000
,,,1.1300000,-0.220000000000000,,,,,1.1300000,0.878000000000000
,,,1.1400000,-0.220000000000000,,,,,1.1400000,0.878000000000000
,,,1.1500000,-0.220000000000000,,,,,1.1500000,0.878000000000000
,,,1.1600000,-0.220000000000000,,,,,1.1600000,0.878000000000000
,,,1.1700000,-0.220000000000000,,,,,1.1700000,0.878000000000000
,,,1.1800000,-0.220000000000000,,,,,1.1800000,0.878000000000000
,,,1.1900000,-0.220000000000000,,,,,1.1900000,0.878000000000000
,,,1.2000000,-0.220000000000000,,,,,1.2000000,0.878000000000000
,,,1.2100000,-0.220000000000000,,,,,1.2100000,0.878000000000000
,,,1.2200000,-0.220000000000000,,,,,1.2200000,0.878000000000000
,,,1.2300000,-0.220000000000000,,,,,1.2300000,0.878000000000000
,,,1.2400000,-0.220000000000000,,,,,1.2400000,0.878000000000000
,,,1.2500000,-0.220000000000000,,,,,1.2500000,0.878000000000000
,,,1.2600000,-0.220000000000000,,,,,1.2600000,0.878000000000000
,,,1.2700000,-0.220000000000000,,,,,1.2700000,0.878000000000000
,,,1.2800000,-0.220000000000000,,,,,1.2800000,0.878000000000000
,,,1.2900000,-0.220000000000000,,,,,1.2900000,0.878000000000000
,,,1.3000000,-0.220000000000000,,,,,1.3000000,0.878000000000000
,,,1.3100000,-0.220000000000000,,,,,1.3100000,0.878000000000000
,,,1.3200000,-0.220000000000000,,,,,1.3200000,0.878000000000000
,,,1.3300000,-0.220000000000000,,,,,1.3300000,0.878000000000000
,,,1.3400000,-0.220000000000000,,,,,1.3400000,0.878000000000000
,,,1.3500000,-0.220000000000000,,,,,1.3500000,0.878000000000000
,,,1.3600000,-0.220000000000000,,,,,1.3600000,0.878000000000000
,,,1.3700000,-0.220000000000000,,,,,1.3700000,0.878000000000000
,,,1.3800000,0.920000000000000,,,,,1.3800000,1.2080000
,,,1.3900000,0.920000000000000,,,,,1.3900000,1.2040000
,,,1.4000000,0.920000000000000,,,,,1.4000000,1.2040000
,,,1.4100000,0.900000000000000,,,,,1.4100000,1.2060000
,,,1.4200000,0.920000000000000,,,,,1.4200000,1.2040000
,,,1.4300000,0.900000000000000,,,,,1.4300000,1.2040000
,,,1.4400000,0.900000000000000,,,,,1.4400000,1.2040000
,,,1.4500000,0.920000000000000,,,,,1.4500000,1.2060000
,,,1.4600000,0.920000000000000,,,,,1.4600000,1.2040000
,,,1.4700000,0.900000000000000,,,,,1.4700000,1.2040000
,,,1.4800000,0.900000000000000,,,,,1.4800000,1.2080000
,,,1.4900000,0.940000000000000,,,,,1.4900000,1.2040000
,,,1.5000000,0.940000000000000,,,,,1.5000000,1.2040000
,,,1.5100000,0.920000000000000,,,,,1.5100000,1.2060000
,,,1.5200000,0.900000000000000,,,,,1.5200000,1.2060000
,,,1.5300000,0.920000000000000,,,,,1.5300000,1.2060000
,,,1.5400000,0.940000000000000,,,,,1.5400000,1.2060000
,,,1.5500000,0.940000000000000,,,,,1.5500000,1.2040000
,,,1.5600000,0.940000000000000,,,,,1.5600000,1.2040000
,,,1.5700000,0.920000000000000,,,,,1.5700000,1.2040000
,,,1.5800000,0.940000000000000,,,,,1.5800000,1.2100000
,,,1.5900000,0.940000000000000,,,,,1.5900000,1.2060000
,,,1.6000000,0.940000000000000,,,,,1.6000000,1.2060000
,,,1.6100000,0.940000000000000,,,,,1.6100000,1.2040000
,,,1.6200000,0.920000000000000,,,,,1.6200000,1.2060000
,,,1.6300000,0.960000000000000,,,,,1.6300000,1.2080000
,,,1.6400000,0.980000000000000,,,,,1.6400000,1.2060000
,,,1.6500000,0.960000000000000,,,,,1.6500000,1.2040000
,,,1.6600000,0.940000000000000,,,,,1.6600000,1.2060000
,,,1.6700000,0.940000000000000,,,,,1.6700000,1.2040000
,,,1.6800000,0.940000000000000,,,,,1.6800000,1.2040000
,,,1.6900000,0.940000000000000,,,,,1.6900000,1.2060000
,,,1.7000000,0.940000000000000,,,,,1.7000000,1.2040000
,,,1.7100000,0.960000000000000,,,,,1.7100000,1.2040000
,,,1.7200000,0.960000000000000,,,,,1.7200000,1.2040000
,,,1.7300000,0.940000000000000,,,,,1.7300000,1.2040000
,,,1.7400000,0.960000000000000,,,,,1.7400000,1.2080000
,,,1.7500000,0.940000000000000,,,,,1.7500000,1.2040000
,,,1.7600000,0.960000000000000,,,,,1.7600000,1.2040000
,,,1.7700000,0.960000000000000,,,,,1.7700000,1.2040000
,,,1.7800000,0.960000000000000,,,,,1.7800000,1.2060000
,,,1.7900000,0.940000000000000,,,,,1.7900000,1.2040000
,,,1.8000000,0.960000000000000,,,,,1.8000000,1.2040000
,,,1.8100000,0.960000000000000,,,,,1.8100000,1.2060000
,,,1.8200000,0.940000000000000,,,,,1.8200000,1.2040000
,,,1.8300000,0.940000000000000,,,,,1.8300000,1.2040000
,,,1.8400000,0.980000000000000,,,,,1.8400000,1.2040000
,,,1.8500000,0.940000000000000,,,,,1.8500000,1.2040000
,,,1.8600000,0.960000000000000,,,,,1.8600000,1.2040000
,,,1.8700000,0.980000000000000,,,,,1.8700000,1.2040000
,,,1.8800000,0.960000000000000,,,,,1.8800000,1.2040000
,,,1.8900000,0.980000000000000,,,,,1.8900000,1.2040000
,,,1.9000000,0.980000000000000,,,,,1.9000000,1.2040000
,,,1.9100000,0.960000000000000,,,,,1.9100000,1.2020000
,,,1.9200000,0.980000000000000,,,,,1.9200000,1.2020000
,,,1.9300000,0.980000000000000,,,,,1.9300000,1.2040000
,,,1.9400000,0.960000000000000,,,,,1.9400000,1.2040000
,,,1.9500000,0.960000000000000,,,,,1.9500000,1.2060000
,,,1.9600000,0.960000000000000,,,,,1.9600000,1.2020000
,,,1.9700000,0.980000000000000,,,,,1.9700000,1.2020000
,,,1.9800000,0.980000000000000,,,,,1.9800000,1.2060000
,,,1.9900000,0.980000000000000,,,,,1.9900000,1.2040000
,,,2.0000000,0.980000000000000,,,,,2.0000000,1.2040000
,,,2.0100000,0.980000000000000,,,,,2.0100000,1.2040000
,,,2.0200000,0.980000000000000,,,,,2.0200000,1.2020000
,,,2.0300000,0.980000000000000,,,,,2.0300000,1.2020000
,,,2.0400000,0.980000000000000,,,,,2.0400000,1.2040000
,,,2.0500000,1.000000,,,,,2.0500000,1.2020000
,,,2.0600000,0.980000000000000,,,,,2.0600000,1.2000000
,,,2.0700000,0.980000000000000,,,,,2.0700000,1.2040000
,,,2.0800000,0.980000000000000,,,,,2.0800000,1.2040000
,,,2.0900000,1.000000,,,,,2.0900000,1.2040000
,,,2.1000000,0.980000000000000,,,,,2.1000000,1.2040000
,,,2.1100000,0.980000000000000,,,,,2.1100000,1.2040000
,,,2.1200000,0.980000000000000,,,,,2.1200000,1.2040000
,,,2.1300000,1.000000,,,,,2.1300000,1.2040000
,,,2.1400000,0.980000000000000,,,,,2.1400000,1.2060000
,,,2.1500000,1.000000,,,,,2.1500000,1.2020000
,,,2.1600000,1.000000,,,,,2.1600000,1.2040000
,,,2.1700000,1.000000,,,,,2.1700000,1.2040000
,,,2.1800000,1.0200000,,,,,2.1800000,1.2040000
,,,2.1900000,1.0200000,,,,,2.1900000,1.2040000
,,,2.2000000,1.000000,,,,,2.2000000,1.2060000
,,,2.2100000,0.980000000000000,,,,,2.2100000,1.2000000
,,,2.2200000,1.000000,,,,,2.2200000,1.2020000
,,,2.2300000,1.000000,,,,,2.2300000,1.2040000
,,,2.2400000,0.980000000000000,,,,,2.2400000,1.2040000
,,,2.2500000,1.0200000,,,,,2.2500000,1.2040000
,,,2.2600000,1.000000,,,,,2.2600000,1.2040000
,,,2.2700000,1.0200000,,,,,2.2700000,1.2000000
,,,2.2800000,1.0400000,,,,,2.2800000,1.2040000
,,,2.2900000,1.0200000,,,,,2.2900000,1.2060000
,,,2.3000000,1.0200000,,,,,2.3000000,1.2040000
,,,2.3100000,1.0200000,,,,,2.3100000,1.2020000
,,,2.3200000,1.0200000,,,,,2.3200000,1.2060000
,,,2.3300000,1.000000,,,,,2.3300000,1.2040000
,,,2.3400000,1.0200000,,,,,2.3400000,1.2060000
,,,2.3500000,1.000000,,,,,2.3500000,1.2040000
,,,2.3600000,1.0200000,,,,,2.3600000,1.2040000
,,,2.3700000,1.0200000,,,,,2.3700000,1.2040000
,,,2.3800000,1.0400000,,,,,2.3800000,1.2040000
,,,2.3900000,1.0200000,,,,,2.3900000,1.2080000
,,,2.4000000,1.0200000,,,,,2.4000000,1.2040000
,,,2.4100000,1.0400000,,,,,2.4100000,1.2040000
,,,2.4200000,1.0200000,,,,,2.4200000,1.2020000
,,,2.4300000,1.0200000,,,,,2.4300000,1.2040000
,,,2.4400000,1.0400000,,,,,2.4400000,1.2040000
,,,2.4500000,1.0400000,,,,,2.4500000,1.2040000
,,,2.4600000,1.0200000,,,,,2.4600000,1.2020000
,,,2.4700000,1.0400000,,,,,2.4700000,1.2020000
,,,2.4800000,1.0400000,,,,,2.4800000,1.2040000
,,,2.4900000,1.0200000,,,,,2.4900000,1.2040000
,,,2.5000000,1.0200000,,,,,2.5000000,1.2020000
,,,2.5100000,1.0200000,,,,,2.5100000,1.2020000
,,,2.5200000,1.0400000,,,,,2.5200000,1.2040000
,,,2.5300000,1.0200000,,,,,2.5300000,1.2040000
,,,2.5400000,1.0400000,,,,,2.5400000,1.2020000
,,,2.5500000,1.0400000,,,,,2.5500000,1.2040000
,,,2.5600000,1.0400000,,,,,2.5600000,1.2000000
,,,2.5700000,1.0200000,,,,,2.5700000,1.2040000
,,,2.5800000,1.0400000,,,,,2.5800000,1.2040000
,,,2.5900000,1.0200000,,,,,2.5900000,1.2040000
,,,2.6000000,1.0400000,,,,,2.6000000,1.2020000
,,,2.6100000,1.0600000,,,,,2.6100000,1.2020000
,,,2.6200000,1.0400000,,,,,2.6200000,1.2000000
,,,2.6300000,1.0400000,,,,,2.6300000,1.2040000
,,,2.6400000,1.0400000,,,,,2.6400000,1.2020000
,,,2.6500000,1.0400000,,,,,2.6500000,1.2040000
,,,2.6600000,1.0400000,,,,,2.6600000,1.2020000
,,,2.6700000,1.0600000,,,,,2.6700000,1.2020000
,,,2.6800000,1.0400000,,,,,2.6800000,1.2020000
,,,2.6900000,1.0600000,,,,,2.6900000,1.2000000
,,,2.7000000,1.0600000,,,,,2.7000000,1.2020000
,,,2.7100000,1.0400000,,,,,2.7100000,1.2000000
,,,2.72000000,1.0400000,,,,,2.72000000,1.2000000
,,,2.73000000,1.0600000,,,,,2.73000000,1.2020000
,,,2.74000000,1.0400000,,,,,2.74000000,1.2000000
,,,2.75000000,1.0400000,,,,,2.75000000,1.2020000
,,,2.76000000,1.0400000,,,,,2.76000000,1.2000000
,,,2.77000000,1.0600000,,,,,2.77000000,1.2000000
,,,2.78000000,1.0600000,,,,,2.78000000,1.2020000
,,,2.79000000,1.0800000,,,,,2.79000000,1.2020000
,,,2.80000000,1.0600000,,,,,2.80000000,1.2020000
,,,2.81000000,1.0600000,,,,,2.81000000,1.2020000
,,,2.82000000,1.0600000,,,,,2.82000000,1.2040000
,,,2.83000000,1.0600000,,,,,2.83000000,1.2020000
,,,2.84000000,1.0600000,,,,,2.84000000,1.2040000
,,,2.85000000,1.0800000,,,,,2.85000000,1.2020000
,,,2.86000000,1.0600000,,,,,2.86000000,1.2000000
,,,2.87000000,1.0800000,,,,,2.87000000,1.1980000
,,,2.88000000,1.0600000,,,,,2.88000000,1.2020000
,,,2.89000000,1.0600000,,,,,2.89000000,1.2020000
,,,2.90000000,1.0600000,,,,,2.90000000,1.2000000
,,,2.91000000,1.0600000,,,,,2.91000000,1.2020000
,,,2.92000000,1.0600000,,,,,2.92000000,1.1980000
,,,2.93000000,1.0600000,,,,,2.93000000,1.2040000
,,,2.94000000,1.0800000,,,,,2.94000000,1.2020000
,,,2.95000000,1.0800000,,,,,2.95000000,1.2040000
,,,2.96000000,1.0800000,,,,,2.96000000,1.2040000
,,,2.97000000,1.0800000,,,,,2.97000000,1.1980000
,,,2.98000000,1.0800000,,,,,2.98000000,1.2040000
,,,2.99000000,1.0600000,,,,,2.99000000,1.2040000
,,,3.00000000,1.0800000,,,,,3.00000000,1.2020000
,,,3.01000000,1.0800000,,,,,3.01000000,1.2020000
,,,3.02000000,1.1000000,,,,,3.02000000,1.2020000
,,,3.03000000,1.0800000,,,,,3.03000000,1.2020000
,,,3.04000000,1.0800000,,,,,3.04000000,1.2020000
,,,3.05000000,1.1000000,,,,,3.05000000,1.2040000
,,,3.06000000,1.0800000,,,,,3.06000000,1.2020000
,,,3.07000000,1.1000000,,,,,3.07000000,1.2020000
,,,3.08000000,1.1000000,,,,,3.08000000,1.2060000
,,,3.09000000,1.1000000,,,,,3.09000000,1.2040000
,,,3.10000000,1.0800000,,,,,3.10000000,1.2060000
,,,3.11000000,1.1000000,,,,,3.11000000,1.2020000
,,,3.12000000,1.0800000,,,,,3.12000000,1.2040000
,,,3.13000000,1.0800000,,,,,3.13000000,1.2040000
,,,3.14000000,1.0800000,,,,,3.14000000,1.2040000
,,,3.15000000,1.1200000,,,,,3.15000000,1.2020000
,,,3.16000000,1.0800000,,,,,3.16000000,1.2020000
,,,3.17000000,1.1000000,,,,,3.17000000,1.2040000
