3. Optical_pumping/data_exp_2_freq=80kHz.csv

Record Length,2500,Points,0.0,-8.159999847,,Record Length,2500,Points,0.0,15.9999989E-3,
Sample Interval,2.0000001E-3,s,2.0000001E-3,-8.079999924,,Sample Interval,2.0000001E-3,s,2.0000001E-3,11.9999992E-3,
Trigger Point,0.0,Samples,4.00000019E-3,-8.079999924,,Trigger Point,0.0,Samples,4.00000019E-3,15.9999989E-3,
,,,6.00000005E-3,-8.079999924,,,,,6.00000005E-3,23.99999835E-3,
,,,8.000000380E-3,-8.079999924,,,,,8.000000380E-3,39.99999911E-3,
,,,10.0000007E-3,-8.000000000,,,,,10.0000007E-3,51.99999735E-3,
Source,CH1,,12.0000001E-3,-8.000000000,,Source,CH2,,12.0000001E-3,51.99999735E-3,
Vertical Units,Volts,,14.0000004E-3,-8.000000000,,Vertical Units,Volts,,14.0000004E-3,51.99999735E-3,
Vertical Scale,2.0478125,,16.0000008E-3,-8.000000000,,Vertical Scale,102.3906179E-3,,16.0000008E-3,47.99999669E-3,
Vertical Offset,0,,18.0000011E-3,-8.000000000,,Vertical Offset,0,,18.0000011E-3,39.99999911E-3,
Horizontal Units,s,,20.0000014E-3,-7.919999599,,Horizontal Units,s,,20.0000014E-3,39.99999911E-3,
Horizontal Scale,500.000023749E-3,,22.00000174E-3,-7.919999599,,Horizontal Scale,500.000023749E-3,,22.00000174E-3,47.99999669E-3,
Pt Fmt,Y,,24.00000021E-3,-7.919999599,,Pt Fmt,Y,,24.00000021E-3,55.999994278E-3,
Yzero,3.35968259,,26.00000054E-3,-7.919999599,,Yzero,-2.92995575,,26.00000054E-3,71.999996901E-3,
Probe Atten,1.000000,,28.00000086E-3,-7.919999599,,Probe Atten,1.000000,,28.00000086E-3,79.999998212E-3,
,,,30.00000119E-3,-7.839999676,,,,,30.00000119E-3,75.999997556E-3,
Note,TBS 1102 - 10:03:31   15/05/2025,,32.00000152E-3,-7.839999676,,Note,TBS 1102 - 10:03:31   15/05/2025,,32.00000152E-3,71.999996901E-3,
,,,34.00000185E-3,-7.839999676,,,,,34.00000185E-3,63.999995589E-3,
,,,36.00000218E-3,-7.839999676,,,,,36.00000218E-3,59.999994934E-3,
,,,38.00000250E-3,-7.759999752,,,,,38.00000250E-3,63.999995589E-3,
,,,40.00000283E-3,-7.759999752,,,,,40.00000283E-3,75.999997556E-3,
,,,42.00000316E-3,-7.759999752,,,,,42.00000316E-3,87.999992073E-3,
,,,44.00000349E-3,-7.679999828,,,,,44.00000349E-3,99.999994040E-3,
,,,46.00000381E-3,-7.759999752,,,,,46.00000381E-3,99.999994040E-3,
,,,48.00000042E-3,-7.679999828,,,,,48.00000042E-3,91.999992728E-3,
,,,50.00000075E-3,-7.679999828,,,,,50.00000075E-3,87.999992073E-3,
,,,52.00000107E-3,-7.599999905,,,,,52.00000107E-3,79.999998212E-3,
,,,54.00000140E-3,-7.679999828,,,,,54.00000140E-3,83.999991417E-3,
,,,56.000001729E-3,-7.599999905,,,,,56.000001729E-3,91.999992728E-3,
,,,58.000002056E-3,-7.599999905,,,,,58.000002056E-3,99.999994040E-3,
,,,60.000002384E-3,-7.599999905,,,,,60.000002384E-3,111.9999886E-3,
,,,62.000002712E-3,-7.599999905,,,,,62.000002712E-3,115.9999892E-3,
,,,64.000003040E-3,-7.519999981,,,,,64.000003040E-3,115.9999892E-3,
,,,65.999999642E-3,-7.599999905,,,,,65.999999642E-3,103.9999947E-3,
,,,68.000003695E-3,-7.519999981,,,,,68.000003695E-3,95.999993384E-3,
,,,70.000000298E-3,-7.599999905,,,,,70.000000298E-3,99.999994040E-3,
,,,72.000004351E-3,-7.440000057,,,,,72.000004351E-3,103.9999947E-3,
,,,74.000000954E-3,-7.440000057,,,,,74.000000954E-3,111.9999886E-3,
,,,76.000005007E-3,-7.440000057,,,,,76.000005007E-3,123.9999905E-3,
,,,78.000001609E-3,-7.440000057,,,,,78.000001609E-3,127.9999912E-3,
,,,80.000005662E-3,-7.35999966,,,,,80.000005662E-3,123.9999905E-3,
,,,82.000002265E-3,-7.35999966,,,,,82.000002265E-3,119.9999899E-3,
,,,84.000006318E-3,-7.35999966,,,,,84.000006318E-3,115.9999892E-3,
,,,86.000002921E-3,-7.35999966,,,,,86.000002921E-3,111.9999886E-3,
,,,88.000006974E-3,-7.35999966,,,,,88.000006974E-3,119.9999899E-3,
,,,90.000003576E-3,-7.27999973,,,,,90.000003576E-3,123.9999905E-3,
,,,92.000007629E-3,-7.35999966,,,,,92.000007629E-3,131.9999844E-3,
,,,94.000004232E-3,-7.27999973,,,,,94.000004232E-3,135.9999925E-3,
,,,96.000000834E-3,-7.27999973,,,,,96.000000834E-3,135.9999925E-3,
,,,98.000004888E-3,-7.27999973,,,,,98.000004888E-3,131.9999844E-3,
,,,100.0000015E-3,-7.19999981,,,,,100.0000015E-3,131.9999844E-3,
,,,102.0000055E-3,-7.27999973,,,,,102.0000055E-3,123.9999905E-3,
,,,104.0000021E-3,-7.11999989,,,,,104.0000021E-3,119.9999899E-3,
,,,106.0000062E-3,-7.19999981,,,,,106.0000062E-3,127.9999912E-3,
,,,108.0000028E-3,-7.11999989,,,,,108.0000028E-3,135.9999925E-3,
,,,110.0000069E-3,-7.11999989,,,,,110.0000069E-3,143.9999938E-3,
,,,112.0000035E-3,-7.11999989,,,,,112.0000035E-3,147.9999870E-3,
,,,114.0000075E-3,-7.11999989,,,,,114.0000075E-3,143.9999938E-3,
,,,116.0000041E-3,-7.11999989,,,,,116.0000041E-3,139.9999857E-3,
,,,118.0000082E-3,-7.11999989,,,,,118.0000082E-3,135.9999925E-3,
,,,120.0000048E-3,-7.03999996,,,,,120.0000048E-3,135.9999925E-3,
,,,122.0000088E-3,-7.03999996,,,,,122.0000088E-3,139.9999857E-3,
,,,124.0000054E-3,-7.03999996,,,,,124.0000054E-3,139.9999857E-3,
,,,126.0000020E-3,-6.96000004,,,,,126.0000020E-3,151.99999511E-3,
,,,128.0000061E-3,-6.96000004,,,,,128.0000061E-3,151.99999511E-3,
,,,130.0000101E-3,-6.96000004,,,,,130.0000101E-3,155.99998832E-3,
,,,131.9999993E-3,-6.87999964,,,,,131.9999993E-3,147.9999870E-3,
,,,134.0000033E-3,-6.87999964,,,,,134.0000033E-3,143.9999938E-3,
,,,136.0000074E-3,-6.79999971,,,,,136.0000074E-3,139.9999857E-3,
,,,138.0000114E-3,-6.87999964,,,,,138.0000114E-3,143.9999938E-3,
,,,140.0000006E-3,-6.87999964,,,,,140.0000006E-3,147.9999870E-3,
,,,142.0000046E-3,-6.79999971,,,,,142.0000046E-3,151.99999511E-3,
,,,144.0000087E-3,-6.79999971,,,,,144.0000087E-3,159.99999642E-3,
,,,146.0000128E-3,-6.79999971,,,,,146.0000128E-3,155.99998832E-3,
,,,148.0000019E-3,-6.79999971,,,,,148.0000019E-3,155.99998832E-3,
,,,150.00000596E-3,-6.79999971,,,,,150.00000596E-3,155.99998832E-3,
,,,152.00001001E-3,-6.71999979,,,,,152.00001001E-3,147.9999870E-3,
,,,154.00001407E-3,-6.71999979,,,,,154.00001407E-3,147.9999870E-3,
,,,156.00000322E-3,-6.71999979,,,,,156.00000322E-3,151.99999511E-3,
,,,158.00000727E-3,-6.63999987,,,,,158.00000727E-3,155.99998832E-3,
,,,160.00001132E-3,-6.63999987,,,,,160.00001132E-3,159.99999642E-3,
,,,162.00000048E-3,-6.63999987,,,,,162.00000048E-3,163.99998963E-3,
,,,164.00000453E-3,-6.63999987,,,,,164.00000453E-3,163.99998963E-3,
,,,166.00000858E-3,-6.63999987,,,,,166.00000858E-3,159.99999642E-3,
,,,168.00001264E-3,-6.63999987,,,,,168.00001264E-3,155.99998832E-3,
,,,170.00000179E-3,-6.55999994,,,,,170.00000179E-3,155.99998832E-3,
,,,172.00000584E-3,-6.55999994,,,,,172.00000584E-3,155.99998832E-3,
,,,174.00000989E-3,-6.48000002,,,,,174.00000989E-3,159.99999642E-3,
,,,176.00001395E-3,-6.48000002,,,,,176.00001395E-3,163.99998963E-3,
,,,178.00000310E-3,-6.48000002,,,,,178.00000310E-3,167.99998283E-3,
,,,180.00000715E-3,-6.48000002,,,,,180.00000715E-3,167.99998283E-3,
,,,182.00001121E-3,-6.48000002,,,,,182.00001121E-3,163.99998963E-3,
,,,184.00001526E-3,-6.48000002,,,,,184.00001526E-3,159.99999642E-3,
,,,186.00000441E-3,-6.39999962,,,,,186.00000441E-3,155.99998832E-3,
,,,188.00000846E-3,-6.39999962,,,,,188.00000846E-3,159.99999642E-3,
,,,190.00001252E-3,-6.39999962,,,,,190.00001252E-3,163.99998963E-3,
,,,192.00000167E-3,-6.31999969,,,,,192.00000167E-3,167.99998283E-3,
,,,194.00000572E-3,-6.31999969,,,,,194.00000572E-3,167.99998283E-3,
,,,196.00000978E-3,-6.31999969,,,,,196.00000978E-3,171.99999094E-3,
,,,198.00001383E-3,-6.31999969,,,,,198.00001383E-3,171.99999094E-3,
,,,200.00000298E-3,-6.31999969,,,,,200.00000298E-3,163.99998963E-3,
,,,202.00000703E-3,-6.31999969,,,,,202.00000703E-3,163.99998963E-3,
,,,204.00001109E-3,-6.23999977,,,,,204.00001109E-3,163.99998963E-3,
,,,206.00001514E-3,-6.23999977,,,,,206.00001514E-3,163.99998963E-3,
,,,208.00000429E-3,-6.15999985,,,,,208.00000429E-3,167.99998283E-3,
,,,210.00000834E-3,-6.23999977,,,,,210.00000834E-3,175.99998415E-3,
,,,212.00001240E-3,-6.15999985,,,,,212.00001240E-3,175.99998415E-3,
,,,214.00001645E-3,-6.07999992,,,,,214.00001645E-3,171.99999094E-3,
,,,216.00000560E-3,-17.1199989,,,,,216.00000560E-3,-211.99998260E-3,
,,,218.00000966E-3,-17.1199989,,,,,218.00000966E-3,-211.99998260E-3,
,,,220.00001371E-3,-17.1199989,,,,,220.00001371E-3,-211.99998260E-3,
,,,222.00001776E-3,-17.1199989,,,,,222.00001776E-3,-211.99998260E-3,
,,,224.00000691E-3,-17.1199989,,,,,224.00000691E-3,-211.99998260E-3,
,,,226.00001097E-3,-17.1199989,,,,,226.00001097E-3,-211.99998260E-3,
,,,228.00001502E-3,-17.1199989,,,,,228.00001502E-3,-211.99998260E-3,
,,,230.00000417E-3,-17.1199989,,,,,230.00000417E-3,-211.99998260E-3,
,,,232.00000823E-3,-17.1199989,,,,,232.00000823E-3,-211.99998260E-3,
,,,234.00001228E-3,-17.1199989,,,,,234.00001228E-3,-211.99998260E-3,
,,,236.00001633E-3,-17.1199989,,,,,236.00001633E-3,-211.99998260E-3,
,,,238.00000548E-3,-17.1199989,,,,,238.00000548E-3,-211.99998260E-3,
,,,240.00000954E-3,-17.1199989,,,,,240.00000954E-3,-211.99998260E-3,
,,,242.00001359E-3,-17.1199989,,,,,242.00001359E-3,-211.99998260E-3,
,,,244.00001764E-3,-17.1199989,,,,,244.00001764E-3,-211.99998260E-3,
,,,246.00000679E-3,-17.1199989,,,,,246.00000679E-3,-211.99998260E-3,
,,,248.00001085E-3,-17.1199989,,,,,248.00001085E-3,-211.99998260E-3,
,,,250.00000000E-3,-17.1199989,,,,,250.00000000E-3,-211.99998260E-3,
,,,252.00000405E-3,-17.1199989,,,,,252.00000405E-3,-211.99998260E-3,
,,,254.00000811E-3,-17.1199989,,,,,254.00000811E-3,-211.99998260E-3,
,,,256.00001216E-3,-17.1199989,,,,,256.00001216E-3,-211.99998260E-3,
,,,258.00001621E-3,-17.1199989,,,,,258.00001621E-3,-211.99998260E-3,
,,,260.00002027E-3,-17.1199989,,,,,260.00002027E-3,-211.99998260E-3,
,,,262.00002432E-3,-17.1199989,,,,,262.00002432E-3,-211.99998260E-3,
,,,263.99999857E-3,-17.1199989,,,,,263.99999857E-3,-211.99998260E-3,
,,,266.00000262E-3,-17.1199989,,,,,266.00000262E-3,-211.99998260E-3,
,,,268.00000668E-3,-17.1199989,,,,,268.00000668E-3,-211.99998260E-3,
,,,270.00001073E-3,-17.1199989,,,,,270.00001073E-3,-211.99998260E-3,
,,,272.00001478E-3,-17.1199989,,,,,272.00001478E-3,-211.99998260E-3,
,,,274.00001884E-3,-17.1199989,,,,,274.00001884E-3,-211.99998260E-3,
,,,276.00002289E-3,-17.1199989,,,,,276.00002289E-3,-211.99998260E-3,
,,,278.00002694E-3,-17.1199989,,,,,278.00002694E-3,-211.99998260E-3,
,,,280.00000119E-3,-17.1199989,,,,,280.00000119E-3,-211.99998260E-3,
,,,282.00000525E-3,-17.1199989,,,,,282.00000525E-3,-211.99998260E-3,
,,,284.00000930E-3,-17.1199989,,,,,284.00000930E-3,-211.99998260E-3,
,,,286.00001335E-3,-17.1199989,,,,,286.00001335E-3,-211.99998260E-3,
,,,288.00001740E-3,-17.1199989,,,,,288.00001740E-3,-211.99998260E-3,
,,,290.00002146E-3,-17.1199989,,,,,290.00002146E-3,-211.99998260E-3,
,,,292.00002551E-3,-17.1199989,,,,,292.00002551E-3,-211.99998260E-3,
,,,293.99999976E-3,-17.1199989,,,,,293.99999976E-3,-211.99998260E-3,
,,,296.00000381E-3,-17.1199989,,,,,296.00000381E-3,-211.99998260E-3,
,,,298.00000787E-3,-17.1199989,,,,,298.00000787E-3,-211.99998260E-3,
,,,300.00001192E-3,-17.1199989,,,,,300.00001192E-3,-211.99998260E-3,
,,,302.00001597E-3,-17.1199989,,,,,302.00001597E-3,-211.99998260E-3,
,,,304.00002003E-3,-17.1199989,,,,,304.00002003E-3,-211.99998260E-3,
,,,306.00002408E-3,-17.1199989,,,,,306.00002408E-3,-211.99998260E-3,
,,,308.00002813E-3,-17.1199989,,,,,308.00002813E-3,-211.99998260E-3,
,,,310.00000238E-3,-17.1199989,,,,,310.00000238E-3,-211.99998260E-3,
,,,312.00000644E-3,-17.1199989,,,,,312.00000644E-3,-211.99998260E-3,
,,,314.00001049E-3,-17.1199989,,,,,314.00001049E-3,-211.99998260E-3,
,,,316.00001454E-3,-17.1199989,,,,,316.00001454E-3,-211.99998260E-3,
,,,318.00001860E-3,-17.1199989,,,,,318.00001860E-3,-211.99998260E-3,
,,,320.00002265E-3,-17.1199989,,,,,320.00002265E-3,-211.99998260E-3,
,,,322.00002670E-3,-17.1199989,,,,,322.00002670E-3,-211.99998260E-3,
,,,324.00000095E-3,-17.1199989,,,,,324.00000095E-3,-211.99998260E-3,
,,,326.00000501E-3,-17.1199989,,,,,326.00000501E-3,-211.99998260E-3,
,,,328.00000906E-3,-17.1199989,,,,,328.00000906E-3,-211.99998260E-3,
,,,330.00001311E-3,-17.1199989,,,,,330.00001311E-3,-211.99998260E-3,
,,,332.00001717E-3,-17.1199989,,,,,332.00001717E-3,-211.99998260E-3,
,,,334.00002122E-3,-17.1199989,,,,,334.00002122E-3,-211.99998260E-3,
,,,336.00002527E-3,-17.1199989,,,,,336.00002527E-3,-211.99998260E-3,
,,,338.00002933E-3,-17.1199989,,,,,338.00002933E-3,-211.99998260E-3,
,,,340.00000358E-3,-17.1199989,,,,,340.00000358E-3,-211.99998260E-3,
,,,342.00000763E-3,-17.1199989,,,,,342.00000763E-3,-211.99998260E-3,
,,,344.00001168E-3,-17.1199989,,,,,344.00001168E-3,-211.99998260E-3,
,,,346.00001574E-3,-17.1199989,,,,,346.00001574E-3,-211.99998260E-3,
,,,348.00001979E-3,-17.1199989,,,,,348.00001979E-3,-211.99998260E-3,
,,,350.00002384E-3,-17.1199989,,,,,350.00002384E-3,-211.99998260E-3,
,,,352.00002789E-3,-17.1199989,,,,,352.00002789E-3,-211.99998260E-3,
,,,354.00000215E-3,-17.1199989,,,,,354.00000215E-3,-211.99998260E-3,
,,,356.00000620E-3,-17.1199989,,,,,356.00000620E-3,-211.99998260E-3,
,,,358.00001025E-3,-17.1199989,,,,,358.00001025E-3,-211.99998260E-3,
,,,360.00001431E-3,-17.1199989,,,,,360.00001431E-3,-211.99998260E-3,
,,,362.00001836E-3,-17.1199989,,,,,362.00001836E-3,-211.99998260E-3,
,,,364.00002241E-3,-17.1199989,,,,,364.00002241E-3,-211.99998260E-3,
,,,366.00002646E-3,-17.1199989,,,,,366.00002646E-3,-211.99998260E-3,
,,,368.00003052E-3,-17.1199989,,,,,368.00003052E-3,-211.99998260E-3,
,,,370.00000477E-3,-17.1199989,,,,,370.00000477E-3,-211.99998260E-3,
,,,372.00000882E-3,-17.1199989,,,,,372.00000882E-3,-211.99998260E-3,
,,,374.00001287E-3,-17.1199989,,,,,374.00001287E-3,-211.99998260E-3,
,,,376.00001693E-3,-17.1199989,,,,,376.00001693E-3,-211.99998260E-3,
,,,378.00002098E-3,-17.1199989,,,,,378.00002098E-3,-211.99998260E-3,
,,,380.00002503E-3,-17.1199989,,,,,380.00002503E-3,-211.99998260E-3,
,,,382.00002909E-3,-17.1199989,,,,,382.00002909E-3,-211.99998260E-3,
,,,384.00000334E-3,-17.1199989,,,,,384.00000334E-3,-211.99998260E-3,
,,,386.00000739E-3,-17.1199989,,,,,386.00000739E-3,-211.99998260E-3,
,,,388.00001144E-3,-17.1199989,,,,,388.00001144E-3,-211.99998260E-3,
,,,390.00001550E-3,-17.1199989,,,,,390.00001550E-3,-211.99998260E-3,
,,,392.00001955E-3,-17.1199989,,,,,392.00001955E-3,-211.99998260E-3,
,,,394.00002360E-3,-17.1199989,,,,,394.00002360E-3,-211.99998260E-3,
,,,396.00002766E-3,-17.1199989,,,,,396.00002766E-3,-211.99998260E-3,
,,,398.00003171E-3,-17.1199989,,,,,398.00003171E-3,-211.99998260E-3,
,,,400.00000596E-3,-17.1199989,,,,,400.00000596E-3,-211.99998260E-3,
,,,402.00001001E-3,-17.1199989,,,,,402.00001001E-3,-211.99998260E-3,
,,,404.000014067E-3,-17.1199989,,,,,404.000014067E-3,-211.99998260E-3,
,,,406.000018120E-3,-17.1199989,,,,,406.000018120E-3,-211.99998260E-3,
,,,408.000022173E-3,-17.1199989,,,,,408.000022173E-3,-211.99998260E-3,
,,,410.000026226E-3,-17.1199989,,,,,410.000026226E-3,-211.99998260E-3,
,,,412.000030279E-3,-17.1199989,,,,,412.000030279E-3,-211.99998260E-3,
,,,414.000034332E-3,-17.1199989,,,,,414.000034332E-3,-211.99998260E-3,
,,,416.000008583E-3,-17.1199989,,,,,416.000008583E-3,-211.99998260E-3,
,,,418.000012636E-3,-17.1199989,,,,,418.000012636E-3,-211.99998260E-3,
,,,420.000016689E-3,-17.1199989,,,,,420.000016689E-3,-211.99998260E-3,
,,,422.000020742E-3,-17.1199989,,,,,422.000020742E-3,-211.99998260E-3,
,,,424.000024796E-3,-17.1199989,,,,,424.000024796E-3,-211.99998260E-3,
,,,426.000028849E-3,-17.1199989,,,,,426.000028849E-3,-211.99998260E-3,
,,,428.000032902E-3,-17.1199989,,,,,428.000032902E-3,-211.99998260E-3,
,,,430.000007153E-3,-17.1199989,,,,,430.000007153E-3,-211.99998260E-3,
,,,432.000011206E-3,-17.1199989,,,,,432.000011206E-3,-211.99998260E-3,
,,,434.000015259E-3,-17.1199989,,,,,434.000015259E-3,-211.99998260E-3,
,,,436.000019312E-3,-17.1199989,,,,,436.000019312E-3,-211.99998260E-3,
,,,438.000023365E-3,-17.1199989,,,,,438.000023365E-3,-211.99998260E-3,
,,,440.000027418E-3,-17.1199989,,,,,440.000027418E-3,-211.99998260E-3,
,,,442.000031471E-3,-17.1199989,,,,,442.000031471E-3,-211.99998260E-3,
,,,444.000035524E-3,-17.1199989,,,,,444.000035524E-3,-211.99998260E-3,
,,,446.000009775E-3,-17.1199989,,,,,446.000009775E-3,-211.99998260E-3,
,,,448.000013828E-3,-17.1199989,,,,,448.000013828E-3,-211.99998260E-3,
,,,450.000017881E-3,-17.1199989,,,,,450.000017881E-3,-211.99998260E-3,
,,,452.000021935E-3,-17.1199989,,,,,452.000021935E-3,-211.99998260E-3,
,,,454.000025988E-3,-17.1199989,,,,,454.000025988E-3,-211.99998260E-3,
,,,456.000030041E-3,-17.1199989,,,,,456.000030041E-3,-211.99998260E-3,
,,,458.000034094E-3,-17.1199989,,,,,458.000034094E-3,-211.99998260E-3,
,,,460.000008345E-3,-17.1199989,,,,,460.000008345E-3,-211.99998260E-3,
,,,462.000012398E-3,-17.1199989,,,,,462.000012398E-3,-211.99998260E-3,
,,,464.000016451E-3,-17.1199989,,,,,464.000016451E-3,-211.99998260E-3,
,,,466.000020504E-3,-17.1199989,,,,,466.000020504E-3,-211.99998260E-3,
,,,468.000024557E-3,-17.1199989,,,,,468.000024557E-3,-211.99998260E-3,
,,,470.000028610E-3,-17.1199989,,,,,470.000028610E-3,-211.99998260E-3,
,,,472.000032663E-3,-17.1199989,,,,,472.000032663E-3,-211.99998260E-3,
,,,474.000036716E-3,-17.1199989,,,,,474.000036716E-3,-211.99998260E-3,
,,,476.000010967E-3,-17.1199989,,,,,476.000010967E-3,-211.99998260E-3,
,,,478.000015020E-3,-17.1199989,,,,,478.000015020E-3,-211.99998260E-3,
,,,480.000019073E-3,-17.1199989,,,,,480.000019073E-3,-211.99998260E-3,
,,,482.000023127E-3,-17.1199989,,,,,482.000023127E-3,-211.99998260E-3,
,,,484.000027180E-3,-17.1199989,,,,,484.000027180E-3,-211.99998260E-3,
,,,486.000031233E-3,-17.1199989,,,,,486.000031233E-3,-211.99998260E-3,
,,,488.000035286E-3,-17.1199989,,,,,488.000035286E-3,-211.99998260E-3,
,,,490.000009537E-3,-17.1199989,,,,,490.000009537E-3,-211.99998260E-3,
,,,492.000013590E-3,-17.1199989,,,,,492.000013590E-3,-211.99998260E-3,
,,,494.000017643E-3,-17.1199989,,,,,494.000017643E-3,-211.99998260E-3,
,,,496.000021696E-3,-17.1199989,,,,,496.000021696E-3,-211.99998260E-3,
,,,498.000025749E-3,-17.1199989,,,,,498.000025749E-3,-211.99998260E-3,
,,,500.000000000E-3,-17.1199989,,,,,500.000000000E-3,-211.99998260E-3,
,,,502.000033855E-3,-17.1199989,,,,,502.000033855E-3,-211.99998260E-3,
,,,504.000008106E-3,-17.1199989,,,,,504.000008106E-3,-211.99998260E-3,
,,,506.000041962E-3,-17.1199989,,,,,506.000041962E-3,-211.99998260E-3,
,,,508.000016212E-3,-17.1199989,,,,,508.000016212E-3,-211.99998260E-3,
,,,510.000050068E-3,-17.1199989,,,,,510.000050068E-3,-211.99998260E-3,
,,,512.000024319E-3,-17.1199989,,,,,512.000024319E-3,-211.99998260E-3,
,,,513.999998569E-3,-17.1199989,,,,,513.999998569E-3,-211.99998260E-3,
,,,516.000032425E-3,-17.1199989,,,,,516.000032425E-3,-211.99998260E-3,
,,,518.000006676E-3,-17.1199989,,,,,518.000006676E-3,-211.99998260E-3,
,,,520.000040531E-3,-17.1199989,,,,,520.000040531E-3,-211.99998260E-3,
,,,522.000014782E-3,-17.1199989,,,,,522.000014782E-3,-211.99998260E-3,
,,,524.000048637E-3,-17.1199989,,,,,524.000048637E-3,-211.99998260E-3,
,,,526.000022888E-3,-17.1199989,,,,,526.000022888E-3,-211.99998260E-3,
,,,527.999997139E-3,-17.1199989,,,,,527.999997139E-3,-211.99998260E-3,
,,,530.000030994E-3,-17.1199989,,,,,530.000030994E-3,-211.99998260E-3,
,,,532.000005245E-3,-17.1199989,,,,,532.000005245E-3,-211.99998260E-3,
,,,534.000039101E-3,-17.1199989,,,,,534.000039101E-3,-211.99998260E-3,
,,,536.000013351E-3,-17.1199989,,,,,536.000013351E-3,-211.99998260E-3,
,,,538.000047207E-3,-17.1199989,,,,,538.000047207E-3,-211.99998260E-3,
,,,540.000021458E-3,-17.1199989,,,,,540.000021458E-3,-211.99998260E-3,
,,,542.000055313E-3,-17.1199989,,,,,542.000055313E-3,-211.99998260E-3,
,,,544.000029564E-3,-17.1199989,,,,,544.000029564E-3,-211.99998260E-3,
,,,546.000003815E-3,-17.1199989,,,,,546.000003815E-3,-211.99998260E-3,
,,,548.000037670E-3,-17.1199989,,,,,548.000037670E-3,-211.99998260E-3,
,,,550.000011921E-3,-17.1199989,,,,,550.000011921E-3,-211.99998260E-3,
,,,552.000045776E-3,-17.1199989,,,,,552.000045776E-3,-211.99998260E-3,
,,,554.000020027E-3,-17.1199989,,,,,554.000020027E-3,-211.99998260E-3,
,,,556.000053883E-3,-17.1199989,,,,,556.000053883E-3,-211.99998260E-3,
,,,558.000028133E-3,-17.1199989,,,,,558.000028133E-3,-211.99998260E-3,
,,,560.000002384E-3,-17.1199989,,,,,560.000002384E-3,-211.99998260E-3,
,,,562.000036240E-3,-17.1199989,,,,,562.000036240E-3,-211.99998260E-3,
,,,564.000010490E-3,-17.1199989,,,,,564.000010490E-3,-211.99998260E-3,
