2.Wigner_function_reconstruction/Datos/tek0134CH1.csv

Model,DPO4054
Firmware Version,2.68

Waveform Type,ANALOG
Point Format,Y
Horizontal Units,s
Horizontal Scale,0.4
Horizontal Delay,0
Sample Interval,4e-05
Record Length,100000
Gating,0.0% to 100.0%
Probe Attenuation,1
Vertical Units,V
Vertical Offset,0
Vertical Scale,2
Vertical Position,-0.08
,
,
,
Label,
TIME,CH1
-2.00000e+00,6.08
-1.99996e+00,6
-1.99992e+00,5.92
-1.99988e+00,6
-1.99984e+00,6.16
-1.99980e+00,5.92
-1.99976e+00,6.08
-1.99972e+00,6
-1.99968e+00,5.92
-1.99964e+00,6
-1.99960e+00,6.24
-1.99956e+00,5.92
-1.99952e+00,5.92
-1.99948e+00,6.08
-1.99944e+00,6.08
-1.99940e+00,6.08
-1.99936e+00,5.92
-1.99932e+00,6
-1.99928e+00,6.16
-1.99924e+00,6
-1.99920e+00,6.16
-1.99916e+00,6.16
-1.99912e+00,6.24
-1.99908e+00,6
-1.99904e+00,6
-1.99900e+00,6.16
-1.99896e+00,5.92
-1.99892e+00,6
-1.99888e+00,6
-1.99884e+00,6
-1.99880e+00,6.16
-1.99876e+00,6
-1.99872e+00,6.08
-1.99868e+00,6
-1.99864e+00,6
-1.99860e+00,5.92
-1.99856e+00,6.24
-1.99852e+00,6.08
-1.99848e+00,6.08
-1.99844e+00,6.16
-1.99840e+00,6
-1.99836e+00,6.08
-1.99832e+00,6
-1.99828e+00,6.08
-1.99824e+00,6.24
-1.99820e+00,6
-1.99816e+00,6
-1.99812e+00,6.08
-1.99808e+00,6.08
-1.99804e+00,6.08
-1.99800e+00,6
-1.99796e+00,6.16
-1.99792e+00,6
-1.99788e+00,5.84
-1.99784e+00,6.16
-1.99780e+00,6.24
-1.99776e+00,6.08
-1.99772e+00,6
-1.99768e+00,6.16
-1.99764e+00,6
-1.99760e+00,6.08
-1.99756e+00,6.08
-1.99752e+00,6
-1.99748e+00,6.08
-1.99744e+00,6.08
-1.99740e+00,6.08
-1.99736e+00,6.24
-1.99732e+00,6.16
-1.99728e+00,6.08
-1.99724e+00,6.24
-1.99720e+00,6.08
-1.99716e+00,6.16
-1.99712e+00,6.08
-1.99708e+00,6.16
-1.99704e+00,6.08
-1.99700e+00,6.08
-1.99696e+00,6.08
-1.99692e+00,6.24
-1.99688e+00,6.08
-1.99684e+00,6
-1.99680e+00,6
-1.99676e+00,6.08
-1.99672e+00,6
-1.99668e+00,6.24
-1.99664e+00,6.16
-1.99660e+00,6
-1.99656e+00,6.16
-1.99652e+00,6.08
-1.99648e+00,6.08
-1.99644e+00,6.08
-1.99640e+00,6.08
-1.99636e+00,6.08
-1.99632e+00,6.08
-1.99628e+00,6.16
-1.99624e+00,6.16
-1.99620e+00,6.08
-1.99616e+00,6.16
-1.99612e+00,6
-1.99608e+00,6.08
-1.99604e+00,6.24
-1.99600e+00,6.24
-1.99596e+00,6
-1.99592e+00,6.32
-1.99588e+00,6.16
-1.99584e+00,6.08
-1.99580e+00,6.08
-1.99576e+00,6.16
-1.99572e+00,6.16
-1.99568e+00,6.08
-1.99564e+00,6.16
-1.99560e+00,6
-1.99556e+00,6.16
-1.99552e+00,6.08
-1.99548e+00,6.08
-1.99544e+00,6.24
-1.99540e+00,6.24
-1.99536e+00,6.08
-1.99532e+00,6.08
-1.99528e+00,6.24
-1.99524e+00,6.16
-1.99520e+00,6.24
-1.99516e+00,6.08
-1.99512e+00,6.08
-1.99508e+00,6.08
-1.99504e+00,6.24
-1.99500e+00,6.16
-1.99496e+00,6.08
-1.99492e+00,6.24
-1.99488e+00,6.08
-1.99484e+00,6
-1.99480e+00,6.08
-1.99476e+00,6.32
-1.99472e+00,6.24
-1.99468e+00,6.24
-1.99464e+00,6.08
-1.99460e+00,6
-1.99456e+00,6.08
-1.99452e+00,6.24
-1.99448e+00,6.08
-1.99444e+00,6.24
-1.99440e+00,6.24
-1.99436e+00,6.08
-1.99432e+00,6.16
-1.99428e+00,6.16
-1.99424e+00,6.08
-1.99420e+00,6.16
-1.99416e+00,6.24
-1.99412e+00,6.16
-1.99408e+00,6.16
-1.99404e+00,6.16
-1.99400e+00,6.24
-1.99396e+00,6.24
-1.99392e+00,6.16
-1.99388e+00,6.16
-1.99384e+00,6.32
-1.99380e+00,6.24
-1.99376e+00,6.24
-1.99372e+00,6.16
-1.99368e+00,6.24
-1.99364e+00,6.24
-1.99360e+00,6.24
-1.99356e+00,6.16
-1.99352e+00,6.08
-1.99348e+00,6.24
-1.99344e+00,6.24
-1.99340e+00,6.24
-1.99336e+00,6.24
-1.99332e+00,6.24
-1.99328e+00,6.08
-1.99324e+00,6.16
-1.99320e+00,6.32
-1.99316e+00,6.08
-1.99312e+00,6.24
-1.99308e+00,6.16
-1.99304e+00,6.08
-1.99300e+00,6.24
-1.99296e+00,6.16
-1.99292e+00,6.16
-1.99288e+00,6.16
-1.99284e+00,6.16
-1.99280e+00,6.24
-1.99276e+00,6.24
-1.99272e+00,6.24
-1.99268e+00,6.24
-1.99264e+00,6.16
-1.99260e+00,6.24
-1.99256e+00,6.24
-1.99252e+00,6.24
-1.99248e+00,6.16
-1.99244e+00,6.16
-1.99240e+00,6.16
-1.99236e+00,6.16
-1.99232e+00,6.16
-1.99228e+00,6.24
-1.99224e+00,6.32
-1.99220e+00,6.16
-1.99216e+00,6.32
-1.99212e+00,6.24
-1.99208e+00,6.24
-1.99204e+00,6.24
-1.99200e+00,6.32
-1.99196e+00,6.24
-1.99192e+00,6.32
-1.99188e+00,6.32
-1.99184e+00,6.24
-1.99180e+00,6.16
-1.99176e+00,6.08
-1.99172e+00,6.24
-1.99168e+00,6.32
-1.99164e+00,6.24
-1.99160e+00,6.16
-1.99156e+00,6.24
-1.99152e+00,6.24
-1.99148e+00,6.08
-1.99144e+00,6.32
-1.99140e+00,6.24
-1.99136e+00,6.08
-1.99132e+00,6.32
-1.99128e+00,6.08
-1.99124e+00,6.32
-1.99120e+00,6.24
-1.99116e+00,6.24
-1.99112e+00,6.24
-1.99108e+00,6.24
-1.99104e+00,6.24
-1.99100e+00,6.32
-1.99096e+00,6.24
-1.99092e+00,6.16
-1.99088e+00,6.32
-1.99084e+00,6.16
-1.99080e+00,6.24
-1.99076e+00,6.16
-1.99072e+00,6.32
-1.99068e+00,6.24
-1.99064e+00,6.24
-1.99060e+00,6.24
-1.99056e+00,6.32
-1.99052e+00,6.32
-1.99048e+00,6.32
-1.99044e+00,6.16
-1.99040e+00,6.16
-1.99036e+00,6.32
-1.99032e+00,6.32
-1.99028e+00,6.32
-1.99024e+00,6.24
-1.99020e+00,6.32
-1.99016e+00,6.16
-1.99012e+00,6.32
-1.99008e+00,6.32
-1.99004e+00,6.32
-1.99000e+00,6.24
-1.98996e+00,6.24
-1.98992e+00,6.24
-1.98988e+00,6.32
-1.98984e+00,6.24
-1.98980e+00,6.24
-1.98976e+00,6.4
-1.98972e+00,6.24
-1.98968e+00,6.16
-1.98964e+00,6.32
-1.98960e+00,6.32
-1.98956e+00,6.32
-1.98952e+00,6.24
-1.98948e+00,6.24
-1.98944e+00,6.32
-1.98940e+00,6.32
-1.98936e+00,6
-1.98932e+00,6.32
-1.98928e+00,6.32
-1.98924e+00,6.24
-1.98920e+00,6.08
-1.98916e+00,6.32
-1.98912e+00,6.32
-1.98908e+00,6.32
-1.98904e+00,6.16
-1.98900e+00,6.24
-1.98896e+00,6.32
-1.98892e+00,6.32
-1.98888e+00,6.24
-1.98884e+00,6.4
-1.98880e+00,6.24
-1.98876e+00,6.16
-1.98872e+00,6.32
-1.98868e+00,6.4
-1.98864e+00,6.24
-1.98860e+00,6.24
-1.98856e+00,6.32
-1.98852e+00,6.32
-1.98848e+00,6.32
-1.98844e+00,6.4
-1.98840e+00,6.32
-1.98836e+00,6.24
-1.98832e+00,6.24
-1.98828e+00,6.32
-1.98824e+00,6.24
-1.98820e+00,6.4
-1.98816e+00,6.24
-1.98812e+00,6.24
-1.98808e+00,6.4
-1.98804e+00,6.24
-1.98800e+00,6.24
-1.98796e+00,6.32
-1.98792e+00,6.24
-1.98788e+00,6.24
-1.98784e+00,6.32
-1.98780e+00,6.4
-1.98776e+00,6.48
-1.98772e+00,6.4
-1.98768e+00,6.16
-1.98764e+00,6.32
-1.98760e+00,6.24
-1.98756e+00,6.24
-1.98752e+00,6.32
-1.98748e+00,6.16
-1.98744e+00,6.4
-1.98740e+00,6.4
-1.98736e+00,6.32
-1.98732e+00,6.32
-1.98728e+00,6.32
-1.98724e+00,6.16
-1.98720e+00,6.24
-1.98716e+00,6.32
-1.98712e+00,6.24
-1.98708e+00,6.16
-1.98704e+00,6.24
-1.98700e+00,6.32
-1.98696e+00,6.24
-1.98692e+00,6.32
-1.98688e+00,6.4
-1.98684e+00,6.24
-1.98680e+00,6.32
-1.98676e+00,6.32
-1.98672e+00,6.4
-1.98668e+00,6.24
-1.98664e+00,6.24
-1.98660e+00,6.4
-1.98656e+00,6.32
-1.98652e+00,6.24
-1.98648e+00,6.4
-1.98644e+00,6.4
-1.98640e+00,6.24
-1.98636e+00,6.32
-1.98632e+00,6.24
-1.98628e+00,6.24
-1.98624e+00,6.32
-1.98620e+00,6.24
-1.98616e+00,6.32
-1.98612e+00,6.24
-1.98608e+00,6.24
-1.98604e+00,6.16
-1.98600e+00,6.16
-1.98596e+00,6.4
-1.98592e+00,6.32
-1.98588e+00,6.32
-1.98584e+00,6.32
-1.98580e+00,6.24
-1.98576e+00,6.24
-1.98572e+00,6.32
-1.98568e+00,6.32
-1.98564e+00,6.32
-1.98560e+00,6.24
-1.98556e+00,6.24
-1.98552e+00,6.32
-1.98548e+00,6.4
-1.98544e+00,6.24
-1.98540e+00,6.4
-1.98536e+00,6.24
-1.98532e+00,6.32
-1.98528e+00,6.32
-1.98524e+00,6.32
-1.98520e+00,6.4
-1.98516e+00,6.24
-1.98512e+00,6.24
-1.98508e+00,6.24
-1.98504e+00,6.48
-1.98500e+00,6.24
-1.98496e+00,6.24
-1.98492e+00,6.24
-1.98488e+00,6.16
-1.98484e+00,6.32
-1.98480e+00,6.16
-1.98476e+00,6.24
-1.98472e+00,6.4
-1.98468e+00,6.32
-1.98464e+00,6.24
-1.98460e+00,6.24
-1.98456e+00,6.32
-1.98452e+00,6.4
-1.98448e+00,6.24
-1.98444e+00,6.32
-1.98440e+00,6.32
-1.98436e+00,6.24
-1.98432e+00,6.08
-1.98428e+00,6.4
-1.98424e+00,6.24
-1.98420e+00,6.4
-1.98416e+00,6.32
-1.98412e+00,6.24
-1.98408e+00,6.32
-1.98404e+00,6.24
-1.98400e+00,6.4
-1.98396e+00,6.32
-1.98392e+00,6.24
-1.98388e+00,6.32
-1.98384e+00,6.32
-1.98380e+00,6.4
-1.98376e+00,6.32
-1.98372e+00,6.32
-1.98368e+00,6.32
-1.98364e+00,6.32
-1.98360e+00,6.24
-1.98356e+00,6.24
-1.98352e+00,6.24
-1.98348e+00,6.24
-1.98344e+00,6.24
-1.98340e+00,6.32
-1.98336e+00,6.48
-1.98332e+00,6.24
-1.98328e+00,6.24
-1.98324e+00,6.24
-1.98320e+00,6.24
-1.98316e+00,6.32
-1.98312e+00,6.32
-1.98308e+00,6.24
-1.98304e+00,6.24
-1.98300e+00,6.16
-1.98296e+00,6.32
-1.98292e+00,6.24
-1.98288e+00,6.24
-1.98284e+00,6.24
-1.98280e+00,6.16
-1.98276e+00,6.24
-1.98272e+00,6.24
-1.98268e+00,6.16
-1.98264e+00,6.08
-1.98260e+00,6.4
-1.98256e+00,6.08
-1.98252e+00,6.24
-1.98248e+00,6.16
-1.98244e+00,6.24
-1.98240e+00,6.24
-1.98236e+00,6.16
-1.98232e+00,6.4
-1.98228e+00,6.16
-1.98224e+00,6.32
-1.98220e+00,6.24
-1.98216e+00,6.24
-1.98212e+00,6.16
-1.98208e+00,6.32
-1.98204e+00,6.16
-1.98200e+00,6.32
-1.98196e+00,6.24
-1.98192e+00,6.32
-1.98188e+00,6.32
-1.98184e+00,6.4
-1.98180e+00,6.24
-1.98176e+00,6.24
-1.98172e+00,6.08
-1.98168e+00,6.24
-1.98164e+00,6.16
-1.98160e+00,6.32
-1.98156e+00,6.24
-1.98152e+00,6.32
-1.98148e+00,6.4
-1.98144e+00,6.24
-1.98140e+00,6.08
-1.98136e+00,6.24
-1.98132e+00,6.16
-1.98128e+00,6.24
-1.98124e+00,6.32
-1.98120e+00,6.16
-1.98116e+00,6.24
-1.98112e+00,6.24
-1.98108e+00,6.08
-1.98104e+00,6.24
-1.98100e+00,6.24
-1.98096e+00,6.4
-1.98092e+00,6.24
-1.98088e+00,6.32
-1.98084e+00,6.24
-1.98080e+00,6.24
-1.98076e+00,6.08
-1.98072e+00,6.24
-1.98068e+00,6.32
-1.98064e+00,6.16
-1.98060e+00,6.16
-1.98056e+00,6.16
-1.98052e+00,6.32
-1.98048e+00,6.16
-1.98044e+00,6.16
-1.98040e+00,6.24
-1.98036e+00,6.24
-1.98032e+00,6.32
-1.98028e+00,6.16
-1.98024e+00,6.16
-1.98020e+00,6.24
-1.98016e+00,6.24
-1.98012e+00,6.16
-1.98008e+00,6.08
-1.98004e+00,6.32
-1.98000e+00,6.24
-1.97996e+00,6.08
-1.97992e+00,6.08
-1.97988e+00,6.24
-1.97984e+00,6.24
-1.97980e+00,6.24
-1.97976e+00,6.16
-1.97972e+00,6.16
-1.97968e+00,6.24
-1.97964e+00,6.24
-1.97960e+00,6.16
-1.97956e+00,6.16
-1.97952e+00,6.24
-1.97948e+00,6.16
-1.97944e+00,6.16
-1.97940e+00,6.24
-1.97936e+00,6.24
-1.97932e+00,6.24
-1.97928e+00,6.16
-1.97924e+00,6.24
-1.97920e+00,6.08
-1.97916e+00,6.16
-1.97912e+00,6.24
-1.97908e+00,6.08
-1.97904e+00,6.24
-1.97900e+00,6.16
-1.97896e+00,6.24
-1.97892e+00,6.16
-1.97888e+00,6.24
-1.97884e+00,6.16
-1.97880e+00,6.08
-1.97876e+00,6.24
-1.97872e+00,6.24
-1.97868e+00,6.16
-1.97864e+00,6.32
-1.97860e+00,6.08
-1.97856e+00,6.16
-1.97852e+00,6.16
-1.97848e+00,6.32
-1.97844e+00,6.32
-1.97840e+00,6.32
-1.97836e+00,6.24
-1.97832e+00,6.32
-1.97828e+00,6.24
-1.97824e+00,6.16
-1.97820e+00,6.16
-1.97816e+00,6.08
-1.97812e+00,6.32
-1.97808e+00,6.24
-1.97804e+00,6.16
-1.97800e+00,6.24
-1.97796e+00,6.24
-1.97792e+00,6.16
-1.97788e+00,6.24
-1.97784e+00,6.32
-1.97780e+00,6.24
-1.97776e+00,6.4
-1.97772e+00,6.24
-1.97768e+00,6.08
-1.97764e+00,6.24
-1.97760e+00,6.32
-1.97756e+00,6.24
-1.97752e+00,6.16
-1.97748e+00,6.08
-1.97744e+00,6.24
-1.97740e+00,6.24
-1.97736e+00,6.16
-1.97732e+00,6.16
-1.97728e+00,6.16
-1.97724e+00,6.24
-1.97720e+00,6.16
-1.97716e+00,6.24
-1.97712e+00,6.24
-1.97708e+00,6.32
-1.97704e+00,6.16
-1.97700e+00,6.24
-1.97696e+00,6.08
-1.97692e+00,6.16
-1.97688e+00,6.32
-1.97684e+00,6.16
-1.97680e+00,6.24
-1.97676e+00,6.24
-1.97672e+00,6.24
-1.97668e+00,6.08
-1.97664e+00,6.24
-1.97660e+00,6.24
-1.97656e+00,6.08
-1.97652e+00,6.08
-1.97648e+00,6.16
-1.97644e+00,6.16
-1.97640e+00,6.24
-1.97636e+00,6.08
-1.97632e+00,6.16
-1.97628e+00,6.32
-1.97624e+00,6.24
-1.97620e+00,6
-1.97616e+00,6.08
-1.97612e+00,6
-1.97608e+00,6.08
-1.97604e+00,6.24
-1.97600e+00,6.16
-1.97596e+00,6.08
-1.97592e+00,6.16
-1.97588e+00,6.24
-1.97584e+00,6.24
-1.97580e+00,6.16
-1.97576e+00,6.32
-1.97572e+00,6.16
-1.97568e+00,6.24
-1.97564e+00,6.16
-1.97560e+00,6.08
-1.97556e+00,5.92
-1.97552e+00,6.24
-1.97548e+00,6.08
-1.97544e+00,6.16
-1.97540e+00,6.16
-1.97536e+00,6.16
-1.97532e+00,6.24
-1.97528e+00,6.16
-1.97524e+00,6.16
-1.97520e+00,6.16
-1.97516e+00,6.16
-1.97512e+00,6.16
-1.97508e+00,6.16
-1.97504e+00,6.08
-1.97500e+00,6.08
-1.97496e+00,6.16
-1.97492e+00,6.16
-1.97488e+00,6.24
-1.97484e+00,6.08
-1.97480e+00,6.24
-1.97476e+00,6.08
-1.97472e+00,6.16
-1.97468e+00,6.08
-1.97464e+00,6.08
-1.97460e+00,6.16
-1.97456e+00,6.16
-1.97452e+00,6.16
-1.97448e+00,6.24
-1.97444e+00,6.08
-1.97440e+00,6.16
-1.97436e+00,6.24
-1.97432e+00,6
-1.97428e+00,6.08
-1.97424e+00,6.08
-1.97420e+00,6.08
-1.97416e+00,6.16
-1.97412e+00,6
-1.97408e+00,6
-1.97404e+00,6
-1.97400e+00,6.16
-1.97396e+00,6.16
-1.97392e+00,6.08
-1.97388e+00,6
-1.97384e+00,6.08
-1.97380e+00,6
-1.97376e+00,6.08
-1.97372e+00,6.08
-1.97368e+00,6.16
-1.97364e+00,6.08
-1.97360e+00,6.08
-1.97356e+00,6.08
-1.97352e+00,6.08
-1.97348e+00,6.08
-1.97344e+00,6
-1.97340e+00,6
-1.97336e+00,6.08
-1.97332e+00,6.08
-1.97328e+00,6.16
-1.97324e+00,6.08
-1.97320e+00,6.08
-1.97316e+00,6
-1.97312e+00,6.16
-1.97308e+00,6.16
-1.97304e+00,6
-1.97300e+00,6
-1.97296e+00,6.08
-1.97292e+00,6.08
-1.97288e+00,6.08
-1.97284e+00,6.08
-1.97280e+00,6.08
-1.97276e+00,6.16
-1.97272e+00,6.08
-1.97268e+00,6.16
-1.97264e+00,6
-1.97260e+00,6
-1.97256e+00,6.08
-1.97252e+00,6.16
-1.97248e+00,6.08
-1.97244e+00,5.92
-1.97240e+00,6.08
-1.97236e+00,6.08
-1.97232e+00,6
-1.97228e+00,6.08
-1.97224e+00,6.08
-1.97220e+00,6
-1.97216e+00,5.92
-1.97212e+00,6
-1.97208e+00,6.08
-1.97204e+00,6.08
-1.97200e+00,6
-1.97196e+00,6
-1.97192e+00,6.16
-1.97188e+00,6
-1.97184e+00,6.08
-1.97180e+00,6.08
-1.97176e+00,6.16
-1.97172e+00,5.92
-1.97168e+00,6.08
-1.97164e+00,6.08
-1.97160e+00,6.08
-1.97156e+00,6
-1.97152e+00,6.08
-1.97148e+00,6
-1.97144e+00,6.08
-1.97140e+00,5.92
-1.97136e+00,6
-1.97132e+00,6.08
-1.97128e+00,6.16
-1.97124e+00,6
-1.97120e+00,6
-1.97116e+00,6.08
-1.97112e+00,5.92
-1.97108e+00,6
-1.97104e+00,5.92
-1.97100e+00,6
-1.97096e+00,6.16
-1.97092e+00,6
-1.97088e+00,6
-1.97084e+00,6.08
-1.97080e+00,5.92
-1.97076e+00,6.08
-1.97072e+00,6
-1.97068e+00,6.08
-1.97064e+00,5.92
-1.97060e+00,6
-1.97056e+00,6
-1.97052e+00,5.92
-1.97048e+00,6.08
-1.97044e+00,6.08
-1.97040e+00,6.08
-1.97036e+00,6
-1.97032e+00,6.08
-1.97028e+00,5.92
-1.97024e+00,6.08
-1.97020e+00,6
-1.97016e+00,6
-1.97012e+00,5.84
-1.97008e+00,6.08
-1.97004e+00,6
-1.97000e+00,6.16
-1.96996e+00,6
-1.96992e+00,6
-1.96988e+00,6
-1.96984e+00,5.92
-1.96980e+00,5.92
-1.96976e+00,6
-1.96972e+00,5.92
-1.96968e+00,5.92
-1.96964e+00,5.84
-1.96960e+00,6
-1.96956e+00,6
-1.96952e+00,5.92
-1.96948e+00,6.08
-1.96944e+00,6
-1.96940e+00,6
-1.96936e+00,6
-1.96932e+00,5.92
-1.96928e+00,5.92
-1.96924e+00,6
-1.96920e+00,6
-1.96916e+00,5.92
-1.96912e+00,6
-1.96908e+00,6.08
-1.96904e+00,5.92
-1.96900e+00,6
-1.96896e+00,6.08
-1.96892e+00,6.08
-1.96888e+00,6.08
-1.96884e+00,6
-1.96880e+00,5.92
-1.96876e+00,6
-1.96872e+00,6.08
-1.96868e+00,6.08
-1.96864e+00,6
-1.96860e+00,5.92
-1.96856e+00,5.84
-1.96852e+00,6
-1.96848e+00,6
-1.96844e+00,5.92
-1.96840e+00,6.24
-1.96836e+00,6
-1.96832e+00,6
-1.96828e+00,6.08
-1.96824e+00,6.08
-1.96820e+00,6
-1.96816e+00,6.08
-1.96812e+00,5.92
-1.96808e+00,5.92
-1.96804e+00,6
-1.96800e+00,6
-1.96796e+00,6
-1.96792e+00,6
-1.96788e+00,6
-1.96784e+00,5.92
-1.96780e+00,5.92
-1.96776e+00,6
-1.96772e+00,5.92
-1.96768e+00,6.08
-1.96764e+00,5.84
-1.96760e+00,5.92
-1.96756e+00,5.92
-1.96752e+00,5.92
-1.96748e+00,6
-1.96744e+00,6
-1.96740e+00,5.92
-1.96736e+00,6
-1.96732e+00,6
-1.96728e+00,5.92
-1.96724e+00,5.84
-1.96720e+00,6.08
-1.96716e+00,6.08
-1.96712e+00,6
-1.96708e+00,6
-1.96704e+00,5.92
-1.96700e+00,6.08
-1.96696e+00,5.92
-1.96692e+00,6
-1.96688e+00,6
-1.96684e+00,5.92
-1.96680e+00,6
-1.96676e+00,5.92
-1.96672e+00,5.92
-1.96668e+00,6
-1.96664e+00,6
-1.96660e+00,6
-1.96656e+00,6.24
-1.96652e+00,5.92
-1.96648e+00,6
-1.96644e+00,6
-1.96640e+00,5.92
-1.96636e+00,6.08
-1.96632e+00,5.92
-1.96628e+00,5.92
-1.96624e+00,6.08
-1.96620e+00,6
-1.96616e+00,5.84
-1.96612e+00,6
-1.96608e+00,6.08
-1.96604e+00,6
-1.96600e+00,6
-1.96596e+00,6.08
-1.96592e+00,5.92
-1.96588e+00,6
-1.96584e+00,5.84
-1.96580e+00,6
-1.96576e+00,5.84
-1.96572e+00,6
-1.96568e+00,5.84
-1.96564e+00,5.92
-1.96560e+00,6
-1.96556e+00,6
-1.96552e+00,6
-1.96548e+00,6
-1.96544e+00,6.08
-1.96540e+00,6.08
-1.96536e+00,5.84
-1.96532e+00,5.84
-1.96528e+00,6
-1.96524e+00,6
-1.96520e+00,5.92
-1.96516e+00,5.92
-1.96512e+00,6.08
-1.96508e+00,6.08
-1.96504e+00,5.92
-1.96500e+00,6
-1.96496e+00,5.92
-1.96492e+00,5.84
-1.96488e+00,6.08
-1.96484e+00,6
-1.96480e+00,5.92
-1.96476e+00,6
-1.96472e+00,6
-1.96468e+00,5.92
-1.96464e+00,6.08
-1.96460e+00,6
-1.96456e+00,6.08
-1.96452e+00,6
-1.96448e+00,5.84
-1.96444e+00,6.08
-1.96440e+00,5.92
-1.96436e+00,6
-1.96432e+00,5.92
-1.96428e+00,5.92
-1.96424e+00,6
-1.96420e+00,6.08
-1.96416e+00,5.84
-1.96412e+00,6
-1.96408e+00,6
-1.96404e+00,6.08
-1.96400e+00,6
-1.96396e+00,6
-1.96392e+00,6
-1.96388e+00,6.08
-1.96384e+00,6
-1.96380e+00,6.08
-1.96376e+00,6
-1.96372e+00,5.92
-1.96368e+00,5.84
-1.96364e+00,6
-1.96360e+00,6.08
-1.96356e+00,6
-1.96352e+00,6.08
-1.96348e+00,6.08
-1.96344e+00,6
-1.96340e+00,6.08
-1.96336e+00,5.92
-1.96332e+00,5.92
-1.96328e+00,6
-1.96324e+00,6.08
-1.96320e+00,6.08
-1.96316e+00,6.16
-1.96312e+00,5.92
-1.96308e+00,6
-1.96304e+00,6.08
-1.96300e+00,6
-1.96296e+00,6.24
-1.96292e+00,6
-1.96288e+00,6
-1.96284e+00,6.08
-1.96280e+00,5.84
-1.96276e+00,5.92
-1.96272e+00,6
-1.96268e+00,6
-1.96264e+00,5.84
-1.96260e+00,6.08
-1.96256e+00,6
-1.96252e+00,6
-1.96248e+00,6.08
-1.96244e+00,6
-1.96240e+00,5.92
-1.96236e+00,6
-1.96232e+00,5.92
-1.96228e+00,5.84
-1.96224e+00,6
-1.96220e+00,5.92
-1.96216e+00,6
-1.96212e+00,6
-1.96208e+00,6.08
-1.96204e+00,5.92
-1.96200e+00,6
-1.96196e+00,6.08
-1.96192e+00,6
-1.96188e+00,5.84
-1.96184e+00,6
-1.96180e+00,6
-1.96176e+00,6
-1.96172e+00,6.16
-1.96168e+00,5.92
-1.96164e+00,5.92
-1.96160e+00,6
-1.96156e+00,6
-1.96152e+00,6
-1.96148e+00,6.08
-1.96144e+00,6.08
-1.96140e+00,6.08
-1.96136e+00,6
-1.96132e+00,6
-1.96128e+00,6
-1.96124e+00,6.08
-1.96120e+00,6
-1.96116e+00,6
-1.96112e+00,5.92
-1.96108e+00,6
-1.96104e+00,6.08
-1.96100e+00,5.92
-1.96096e+00,5.92
-1.96092e+00,6
-1.96088e+00,5.84
-1.96084e+00,6.08
-1.96080e+00,6
-1.96076e+00,6
-1.96072e+00,5.92
-1.96068e+00,6
-1.96064e+00,6
-1.96060e+00,6
-1.96056e+00,6
-1.96052e+00,6
-1.96048e+00,6.08
-1.96044e+00,6.08
-1.96040e+00,6
-1.96036e+00,6
-1.96032e+00,6.08
-1.96028e+00,6
-1.96024e+00,6
-1.96020e+00,6
-1.96016e+00,6
-1.96012e+00,6.08
-1.96008e+00,5.92
-1.96004e+00,5.92
-1.96000e+00,6
-1.95996e+00,6.08
-1.95992e+00,6
-1.95988e+00,5.84
-1.95984e+00,5.92
-1.95980e+00,6.08
-1.95976e+00,6.08
-1.95972e+00,6.08
-1.95968e+00,6.08
-1.95964e+00,6
-1.95960e+00,6.16
-1.95956e+00,6.08
-1.95952e+00,6.08
-1.95948e+00,6.08
-1.95944e+00,6
-1.95940e+00,6
-1.95936e+00,6
-1.95932e+00,6
-1.95928e+00,5.92
-1.95924e+00,5.84
-1.95920e+00,6
-1.95916e+00,6
-1.95912e+00,6.08
-1.95908e+00,6.08
-1.95904e+00,6
-1.95900e+00,6.08
-1.95896e+00,6
-1.95892e+00,6
-1.95888e+00,6.08
-1.95884e+00,6
-1.95880e+00,6.08
-1.95876e+00,5.92
-1.95872e+00,6
-1.95868e+00,5.92
-1.95864e+00,6.08
-1.95860e+00,5.92
-1.95856e+00,6
-1.95852e+00,6.08
-1.95848e+00,6
-1.95844e+00,5.92
-1.95840e+00,6
-1.95836e+00,5.92
-1.95832e+00,6
-1.95828e+00,6.08
-1.95824e+00,5.92
-1.95820e+00,6.08
-1.95816e+00,6
-1.95812e+00,6
-1.95808e+00,6.08
-1.95804e+00,6
-1.95800e+00,6
-1.95796e+00,6.08
-1.95792e+00,6
-1.95788e+00,6
-1.95784e+00,6
-1.95780e+00,6.08
-1.95776e+00,6
-1.95772e+00,6.08
-1.95768e+00,6
-1.95764e+00,6
-1.95760e+00,6.08
-1.95756e+00,6.08
-1.95752e+00,5.92
-1.95748e+00,5.92
-1.95744e+00,5.92
-1.95740e+00,6
-1.95736e+00,6.08
-1.95732e+00,6
-1.95728e+00,6
-1.95724e+00,6
-1.95720e+00,6
-1.95716e+00,5.92
-1.95712e+00,6
-1.95708e+00,6
-1.95704e+00,6
-1.95700e+00,5.92
-1.95696e+00,6
-1.95692e+00,6
-1.95688e+00,6
-1.95684e+00,6
-1.95680e+00,6.08
-1.95676e+00,6
-1.95672e+00,6.08
-1.95668e+00,5.92
-1.95664e+00,6.08
-1.95660e+00,6
-1.95656e+00,6
-1.95652e+00,5.92
-1.95648e+00,6.08
-1.95644e+00,6.08
-1.95640e+00,6
-1.95636e+00,6
-1.95632e+00,6.08
-1.95628e+00,6
-1.95624e+00,6
-1.95620e+00,6
-1.95616e+00,5.92
-1.95612e+00,6.08
-1.95608e+00,5.92
-1.95604e+00,6.08
-1.95600e+00,5.92
-1.95596e+00,5.92
-1.95592e+00,5.92
-1.95588e+00,5.92
-1.95584e+00,6
-1.95580e+00,6
-1.95576e+00,6.08
-1.95572e+00,5.92
-1.95568e+00,6
-1.95564e+00,6
-1.95560e+00,5.92
-1.95556e+00,6.08
-1.95552e+00,6
-1.95548e+00,6
-1.95544e+00,6
-1.95540e+00,6
-1.95536e+00,6
-1.95532e+00,6.08
-1.95528e+00,6.08
-1.95524e+00,6
-1.95520e+00,6
-1.95516e+00,6
-1.95512e+00,6.08
-1.95508e+00,6
-1.95504e+00,6.08
-1.95500e+00,6.08
-1.95496e+00,6.08
-1.95492e+00,6
-1.95488e+00,6
-1.95484e+00,6.08
-1.95480e+00,6
-1.95476e+00,6.08
-1.95472e+00,6.16
-1.95468e+00,6.08
-1.95464e+00,6
-1.95460e+00,6.08
